G04 #@! TF.GenerationSoftware,KiCad,Pcbnew,(5.1.2)-2*
G04 #@! TF.CreationDate,2021-08-05T11:03:32+02:00*
G04 #@! TF.ProjectId,pwm_to_analog_filter,70776d5f-746f-45f6-916e-616c6f675f66,rev?*
G04 #@! TF.SameCoordinates,Original*
G04 #@! TF.FileFunction,Soldermask,Bot*
G04 #@! TF.FilePolarity,Negative*
%FSLAX46Y46*%
G04 Gerber Fmt 4.6, Leading zero omitted, Abs format (unit mm)*
G04 Created by KiCad (PCBNEW (5.1.2)-2) date 2021-08-05 11:03:32*
%MOMM*%
%LPD*%
G04 APERTURE LIST*
%ADD10C,0.100000*%
G04 APERTURE END LIST*
D10*
G36*
X203575256Y-105071298D02*
G01*
X203681579Y-105092447D01*
X203982042Y-105216903D01*
X204252451Y-105397585D01*
X204482415Y-105627549D01*
X204663097Y-105897958D01*
X204787553Y-106198421D01*
X204851000Y-106517391D01*
X204851000Y-106842609D01*
X204787553Y-107161579D01*
X204663097Y-107462042D01*
X204482415Y-107732451D01*
X204252451Y-107962415D01*
X203982042Y-108143097D01*
X203681579Y-108267553D01*
X203575256Y-108288702D01*
X203362611Y-108331000D01*
X203037389Y-108331000D01*
X202824744Y-108288702D01*
X202718421Y-108267553D01*
X202417958Y-108143097D01*
X202147549Y-107962415D01*
X201917585Y-107732451D01*
X201736903Y-107462042D01*
X201612447Y-107161579D01*
X201549000Y-106842609D01*
X201549000Y-106517391D01*
X201612447Y-106198421D01*
X201736903Y-105897958D01*
X201917585Y-105627549D01*
X202147549Y-105397585D01*
X202417958Y-105216903D01*
X202718421Y-105092447D01*
X202824744Y-105071298D01*
X203037389Y-105029000D01*
X203362611Y-105029000D01*
X203575256Y-105071298D01*
X203575256Y-105071298D01*
G37*
G36*
X129915256Y-105071298D02*
G01*
X130021579Y-105092447D01*
X130322042Y-105216903D01*
X130592451Y-105397585D01*
X130822415Y-105627549D01*
X131003097Y-105897958D01*
X131127553Y-106198421D01*
X131191000Y-106517391D01*
X131191000Y-106842609D01*
X131127553Y-107161579D01*
X131003097Y-107462042D01*
X130822415Y-107732451D01*
X130592451Y-107962415D01*
X130322042Y-108143097D01*
X130021579Y-108267553D01*
X129915256Y-108288702D01*
X129702611Y-108331000D01*
X129377389Y-108331000D01*
X129164744Y-108288702D01*
X129058421Y-108267553D01*
X128757958Y-108143097D01*
X128487549Y-107962415D01*
X128257585Y-107732451D01*
X128076903Y-107462042D01*
X127952447Y-107161579D01*
X127889000Y-106842609D01*
X127889000Y-106517391D01*
X127952447Y-106198421D01*
X128076903Y-105897958D01*
X128257585Y-105627549D01*
X128487549Y-105397585D01*
X128757958Y-105216903D01*
X129058421Y-105092447D01*
X129164744Y-105071298D01*
X129377389Y-105029000D01*
X129702611Y-105029000D01*
X129915256Y-105071298D01*
X129915256Y-105071298D01*
G37*
G36*
X179605000Y-105691000D02*
G01*
X176503000Y-105691000D01*
X176503000Y-102589000D01*
X179605000Y-102589000D01*
X179605000Y-105691000D01*
X179605000Y-105691000D01*
G37*
G36*
X173276585Y-102618802D02*
G01*
X173426410Y-102648604D01*
X173708674Y-102765521D01*
X173962705Y-102935259D01*
X174178741Y-103151295D01*
X174348479Y-103405326D01*
X174465396Y-103687590D01*
X174525000Y-103987240D01*
X174525000Y-104292760D01*
X174465396Y-104592410D01*
X174348479Y-104874674D01*
X174178741Y-105128705D01*
X173962705Y-105344741D01*
X173708674Y-105514479D01*
X173426410Y-105631396D01*
X173276585Y-105661198D01*
X173126761Y-105691000D01*
X172821239Y-105691000D01*
X172671415Y-105661198D01*
X172521590Y-105631396D01*
X172239326Y-105514479D01*
X171985295Y-105344741D01*
X171769259Y-105128705D01*
X171599521Y-104874674D01*
X171482604Y-104592410D01*
X171423000Y-104292760D01*
X171423000Y-103987240D01*
X171482604Y-103687590D01*
X171599521Y-103405326D01*
X171769259Y-103151295D01*
X171985295Y-102935259D01*
X172239326Y-102765521D01*
X172521590Y-102648604D01*
X172671415Y-102618802D01*
X172821239Y-102589000D01*
X173126761Y-102589000D01*
X173276585Y-102618802D01*
X173276585Y-102618802D01*
G37*
G36*
X167885239Y-102907101D02*
G01*
X168121053Y-102978634D01*
X168338381Y-103094799D01*
X168528871Y-103251129D01*
X168685201Y-103441619D01*
X168801366Y-103658947D01*
X168872899Y-103894761D01*
X168897053Y-104140000D01*
X168872899Y-104385239D01*
X168801366Y-104621053D01*
X168685201Y-104838381D01*
X168528871Y-105028871D01*
X168338381Y-105185201D01*
X168121053Y-105301366D01*
X167885239Y-105372899D01*
X167701457Y-105391000D01*
X167578543Y-105391000D01*
X167394761Y-105372899D01*
X167158947Y-105301366D01*
X166941619Y-105185201D01*
X166751129Y-105028871D01*
X166594799Y-104838381D01*
X166478634Y-104621053D01*
X166407101Y-104385239D01*
X166382947Y-104140000D01*
X166407101Y-103894761D01*
X166478634Y-103658947D01*
X166594799Y-103441619D01*
X166751129Y-103251129D01*
X166941619Y-103094799D01*
X167158947Y-102978634D01*
X167394761Y-102907101D01*
X167578543Y-102889000D01*
X167701457Y-102889000D01*
X167885239Y-102907101D01*
X167885239Y-102907101D01*
G37*
G36*
X137524903Y-102937075D02*
G01*
X137625236Y-102978634D01*
X137752571Y-103031378D01*
X137957466Y-103168285D01*
X138131715Y-103342534D01*
X138197922Y-103441620D01*
X138268623Y-103547431D01*
X138362925Y-103775097D01*
X138411000Y-104016786D01*
X138411000Y-104263214D01*
X138362925Y-104504903D01*
X138326679Y-104592410D01*
X138268622Y-104732571D01*
X138131715Y-104937466D01*
X137957466Y-105111715D01*
X137752571Y-105248622D01*
X137752570Y-105248623D01*
X137752569Y-105248623D01*
X137524903Y-105342925D01*
X137283214Y-105391000D01*
X137036786Y-105391000D01*
X136795097Y-105342925D01*
X136567431Y-105248623D01*
X136567430Y-105248623D01*
X136567429Y-105248622D01*
X136362534Y-105111715D01*
X136188285Y-104937466D01*
X136051378Y-104732571D01*
X135993322Y-104592410D01*
X135957075Y-104504903D01*
X135909000Y-104263214D01*
X135909000Y-104016786D01*
X135957075Y-103775097D01*
X136051377Y-103547431D01*
X136122078Y-103441620D01*
X136188285Y-103342534D01*
X136362534Y-103168285D01*
X136567429Y-103031378D01*
X136694765Y-102978634D01*
X136795097Y-102937075D01*
X137036786Y-102889000D01*
X137283214Y-102889000D01*
X137524903Y-102937075D01*
X137524903Y-102937075D01*
G37*
G36*
X194068000Y-104992000D02*
G01*
X192266000Y-104992000D01*
X192266000Y-103190000D01*
X194068000Y-103190000D01*
X194068000Y-104992000D01*
X194068000Y-104992000D01*
G37*
G36*
X188861000Y-104992000D02*
G01*
X187059000Y-104992000D01*
X187059000Y-103190000D01*
X188861000Y-103190000D01*
X188861000Y-104992000D01*
X188861000Y-104992000D01*
G37*
G36*
X204137585Y-98808802D02*
G01*
X204287410Y-98838604D01*
X204569674Y-98955521D01*
X204823705Y-99125259D01*
X205039741Y-99341295D01*
X205209479Y-99595326D01*
X205326396Y-99877590D01*
X205386000Y-100177240D01*
X205386000Y-100482760D01*
X205326396Y-100782410D01*
X205209479Y-101064674D01*
X205039741Y-101318705D01*
X204823705Y-101534741D01*
X204569674Y-101704479D01*
X204287410Y-101821396D01*
X204137585Y-101851198D01*
X203987761Y-101881000D01*
X203682239Y-101881000D01*
X203532415Y-101851198D01*
X203382590Y-101821396D01*
X203100326Y-101704479D01*
X202846295Y-101534741D01*
X202630259Y-101318705D01*
X202460521Y-101064674D01*
X202343604Y-100782410D01*
X202284000Y-100482760D01*
X202284000Y-100177240D01*
X202343604Y-99877590D01*
X202460521Y-99595326D01*
X202630259Y-99341295D01*
X202846295Y-99125259D01*
X203100326Y-98955521D01*
X203382590Y-98838604D01*
X203532415Y-98808802D01*
X203682239Y-98779000D01*
X203987761Y-98779000D01*
X204137585Y-98808802D01*
X204137585Y-98808802D01*
G37*
G36*
X204137585Y-93728802D02*
G01*
X204287410Y-93758604D01*
X204569674Y-93875521D01*
X204823705Y-94045259D01*
X205039741Y-94261295D01*
X205209479Y-94515326D01*
X205326396Y-94797590D01*
X205326396Y-94797591D01*
X205386000Y-95097239D01*
X205386000Y-95402761D01*
X205356198Y-95552585D01*
X205326396Y-95702410D01*
X205209479Y-95984674D01*
X205039741Y-96238705D01*
X204823705Y-96454741D01*
X204569674Y-96624479D01*
X204287410Y-96741396D01*
X204137585Y-96771198D01*
X203987761Y-96801000D01*
X203682239Y-96801000D01*
X203532415Y-96771198D01*
X203382590Y-96741396D01*
X203100326Y-96624479D01*
X202846295Y-96454741D01*
X202630259Y-96238705D01*
X202460521Y-95984674D01*
X202343604Y-95702410D01*
X202313802Y-95552585D01*
X202284000Y-95402761D01*
X202284000Y-95097239D01*
X202343604Y-94797591D01*
X202343604Y-94797590D01*
X202460521Y-94515326D01*
X202630259Y-94261295D01*
X202846295Y-94045259D01*
X203100326Y-93875521D01*
X203382590Y-93758604D01*
X203532415Y-93728802D01*
X203682239Y-93699000D01*
X203987761Y-93699000D01*
X204137585Y-93728802D01*
X204137585Y-93728802D01*
G37*
G36*
X130202000Y-95404000D02*
G01*
X127100000Y-95404000D01*
X127100000Y-92302000D01*
X130202000Y-92302000D01*
X130202000Y-95404000D01*
X130202000Y-95404000D01*
G37*
G36*
X204137585Y-88648802D02*
G01*
X204287410Y-88678604D01*
X204569674Y-88795521D01*
X204823705Y-88965259D01*
X205039741Y-89181295D01*
X205209479Y-89435326D01*
X205239446Y-89507674D01*
X205326396Y-89717591D01*
X205386000Y-90017239D01*
X205386000Y-90322761D01*
X205356198Y-90472585D01*
X205326396Y-90622410D01*
X205209479Y-90904674D01*
X205039741Y-91158705D01*
X204823705Y-91374741D01*
X204569674Y-91544479D01*
X204287410Y-91661396D01*
X204137585Y-91691198D01*
X203987761Y-91721000D01*
X203682239Y-91721000D01*
X203532415Y-91691198D01*
X203382590Y-91661396D01*
X203100326Y-91544479D01*
X202846295Y-91374741D01*
X202630259Y-91158705D01*
X202460521Y-90904674D01*
X202343604Y-90622410D01*
X202313802Y-90472585D01*
X202284000Y-90322761D01*
X202284000Y-90017239D01*
X202343604Y-89717591D01*
X202430554Y-89507674D01*
X202460521Y-89435326D01*
X202630259Y-89181295D01*
X202846295Y-88965259D01*
X203100326Y-88795521D01*
X203382590Y-88678604D01*
X203532415Y-88648802D01*
X203682239Y-88619000D01*
X203987761Y-88619000D01*
X204137585Y-88648802D01*
X204137585Y-88648802D01*
G37*
G36*
X128953585Y-87251802D02*
G01*
X129103410Y-87281604D01*
X129385674Y-87398521D01*
X129639705Y-87568259D01*
X129855741Y-87784295D01*
X130025479Y-88038326D01*
X130142396Y-88320590D01*
X130142396Y-88320591D01*
X130201754Y-88619000D01*
X130202000Y-88620240D01*
X130202000Y-88925760D01*
X130142396Y-89225410D01*
X130025479Y-89507674D01*
X129855741Y-89761705D01*
X129639705Y-89977741D01*
X129385674Y-90147479D01*
X129103410Y-90264396D01*
X128953585Y-90294198D01*
X128803761Y-90324000D01*
X128498239Y-90324000D01*
X128348415Y-90294198D01*
X128198590Y-90264396D01*
X127916326Y-90147479D01*
X127662295Y-89977741D01*
X127446259Y-89761705D01*
X127276521Y-89507674D01*
X127159604Y-89225410D01*
X127100000Y-88925760D01*
X127100000Y-88620240D01*
X127100247Y-88619000D01*
X127159604Y-88320591D01*
X127159604Y-88320590D01*
X127276521Y-88038326D01*
X127446259Y-87784295D01*
X127662295Y-87568259D01*
X127916326Y-87398521D01*
X128198590Y-87281604D01*
X128348415Y-87251802D01*
X128498239Y-87222000D01*
X128803761Y-87222000D01*
X128953585Y-87251802D01*
X128953585Y-87251802D01*
G37*
G36*
X205386000Y-86641000D02*
G01*
X202284000Y-86641000D01*
X202284000Y-83539000D01*
X205386000Y-83539000D01*
X205386000Y-86641000D01*
X205386000Y-86641000D01*
G37*
G36*
X188861000Y-82181000D02*
G01*
X187059000Y-82181000D01*
X187059000Y-80379000D01*
X188861000Y-80379000D01*
X188861000Y-82181000D01*
X188861000Y-82181000D01*
G37*
G36*
X194068000Y-82181000D02*
G01*
X192266000Y-82181000D01*
X192266000Y-80379000D01*
X194068000Y-80379000D01*
X194068000Y-82181000D01*
X194068000Y-82181000D01*
G37*
G36*
X174779000Y-81307000D02*
G01*
X171677000Y-81307000D01*
X171677000Y-78205000D01*
X174779000Y-78205000D01*
X174779000Y-81307000D01*
X174779000Y-81307000D01*
G37*
G36*
X178610585Y-78234802D02*
G01*
X178760410Y-78264604D01*
X179042674Y-78381521D01*
X179296705Y-78551259D01*
X179512741Y-78767295D01*
X179682479Y-79021326D01*
X179799396Y-79303590D01*
X179859000Y-79603240D01*
X179859000Y-79908760D01*
X179799396Y-80208410D01*
X179682479Y-80490674D01*
X179512741Y-80744705D01*
X179296705Y-80960741D01*
X179042674Y-81130479D01*
X178760410Y-81247396D01*
X178610585Y-81277198D01*
X178460761Y-81307000D01*
X178155239Y-81307000D01*
X178005415Y-81277198D01*
X177855590Y-81247396D01*
X177573326Y-81130479D01*
X177319295Y-80960741D01*
X177103259Y-80744705D01*
X176933521Y-80490674D01*
X176816604Y-80208410D01*
X176757000Y-79908760D01*
X176757000Y-79603240D01*
X176816604Y-79303590D01*
X176933521Y-79021326D01*
X177103259Y-78767295D01*
X177319295Y-78551259D01*
X177573326Y-78381521D01*
X177855590Y-78264604D01*
X178005415Y-78234802D01*
X178155239Y-78205000D01*
X178460761Y-78205000D01*
X178610585Y-78234802D01*
X178610585Y-78234802D01*
G37*
G36*
X137405239Y-78523101D02*
G01*
X137641053Y-78594634D01*
X137858381Y-78710799D01*
X138048871Y-78867129D01*
X138205201Y-79057619D01*
X138321366Y-79274947D01*
X138392899Y-79510761D01*
X138417053Y-79756000D01*
X138392899Y-80001239D01*
X138321366Y-80237053D01*
X138205201Y-80454381D01*
X138048871Y-80644871D01*
X137858381Y-80801201D01*
X137641053Y-80917366D01*
X137405239Y-80988899D01*
X137221457Y-81007000D01*
X137098543Y-81007000D01*
X136914761Y-80988899D01*
X136678947Y-80917366D01*
X136461619Y-80801201D01*
X136271129Y-80644871D01*
X136114799Y-80454381D01*
X135998634Y-80237053D01*
X135927101Y-80001239D01*
X135902947Y-79756000D01*
X135927101Y-79510761D01*
X135998634Y-79274947D01*
X136114799Y-79057619D01*
X136271129Y-78867129D01*
X136461619Y-78710799D01*
X136678947Y-78594634D01*
X136914761Y-78523101D01*
X137098543Y-78505000D01*
X137221457Y-78505000D01*
X137405239Y-78523101D01*
X137405239Y-78523101D01*
G37*
G36*
X168004903Y-78553075D02*
G01*
X168105236Y-78594634D01*
X168232571Y-78647378D01*
X168437466Y-78784285D01*
X168611715Y-78958534D01*
X168677922Y-79057620D01*
X168748623Y-79163431D01*
X168842925Y-79391097D01*
X168891000Y-79632786D01*
X168891000Y-79879214D01*
X168842925Y-80120903D01*
X168806679Y-80208410D01*
X168748622Y-80348571D01*
X168611715Y-80553466D01*
X168437466Y-80727715D01*
X168232571Y-80864622D01*
X168232570Y-80864623D01*
X168232569Y-80864623D01*
X168004903Y-80958925D01*
X167763214Y-81007000D01*
X167516786Y-81007000D01*
X167275097Y-80958925D01*
X167047431Y-80864623D01*
X167047430Y-80864623D01*
X167047429Y-80864622D01*
X166842534Y-80727715D01*
X166668285Y-80553466D01*
X166531378Y-80348571D01*
X166473322Y-80208410D01*
X166437075Y-80120903D01*
X166389000Y-79879214D01*
X166389000Y-79632786D01*
X166437075Y-79391097D01*
X166531377Y-79163431D01*
X166602078Y-79057620D01*
X166668285Y-78958534D01*
X166842534Y-78784285D01*
X167047429Y-78647378D01*
X167174765Y-78594634D01*
X167275097Y-78553075D01*
X167516786Y-78505000D01*
X167763214Y-78505000D01*
X168004903Y-78553075D01*
X168004903Y-78553075D01*
G37*
G36*
X203575256Y-77131298D02*
G01*
X203681579Y-77152447D01*
X203982042Y-77276903D01*
X204252451Y-77457585D01*
X204482415Y-77687549D01*
X204482416Y-77687551D01*
X204663098Y-77957960D01*
X204787553Y-78258422D01*
X204851000Y-78577389D01*
X204851000Y-78902611D01*
X204808702Y-79115256D01*
X204787553Y-79221579D01*
X204663097Y-79522042D01*
X204482415Y-79792451D01*
X204252451Y-80022415D01*
X203982042Y-80203097D01*
X203982041Y-80203098D01*
X203982040Y-80203098D01*
X203900065Y-80237053D01*
X203681579Y-80327553D01*
X203575924Y-80348569D01*
X203362611Y-80391000D01*
X203037389Y-80391000D01*
X202824076Y-80348569D01*
X202718421Y-80327553D01*
X202499935Y-80237053D01*
X202417960Y-80203098D01*
X202417959Y-80203098D01*
X202417958Y-80203097D01*
X202147549Y-80022415D01*
X201917585Y-79792451D01*
X201736903Y-79522042D01*
X201612447Y-79221579D01*
X201591298Y-79115256D01*
X201549000Y-78902611D01*
X201549000Y-78577389D01*
X201612447Y-78258422D01*
X201736902Y-77957960D01*
X201917584Y-77687551D01*
X201917585Y-77687549D01*
X202147549Y-77457585D01*
X202417958Y-77276903D01*
X202718421Y-77152447D01*
X202824744Y-77131298D01*
X203037389Y-77089000D01*
X203362611Y-77089000D01*
X203575256Y-77131298D01*
X203575256Y-77131298D01*
G37*
G36*
X129915256Y-77131298D02*
G01*
X130021579Y-77152447D01*
X130322042Y-77276903D01*
X130592451Y-77457585D01*
X130822415Y-77687549D01*
X130822416Y-77687551D01*
X131003098Y-77957960D01*
X131127553Y-78258422D01*
X131191000Y-78577389D01*
X131191000Y-78902611D01*
X131148702Y-79115256D01*
X131127553Y-79221579D01*
X131003097Y-79522042D01*
X130822415Y-79792451D01*
X130592451Y-80022415D01*
X130322042Y-80203097D01*
X130322041Y-80203098D01*
X130322040Y-80203098D01*
X130240065Y-80237053D01*
X130021579Y-80327553D01*
X129915924Y-80348569D01*
X129702611Y-80391000D01*
X129377389Y-80391000D01*
X129164076Y-80348569D01*
X129058421Y-80327553D01*
X128839935Y-80237053D01*
X128757960Y-80203098D01*
X128757959Y-80203098D01*
X128757958Y-80203097D01*
X128487549Y-80022415D01*
X128257585Y-79792451D01*
X128076903Y-79522042D01*
X127952447Y-79221579D01*
X127931298Y-79115256D01*
X127889000Y-78902611D01*
X127889000Y-78577389D01*
X127952447Y-78258422D01*
X128076902Y-77957960D01*
X128257584Y-77687551D01*
X128257585Y-77687549D01*
X128487549Y-77457585D01*
X128757958Y-77276903D01*
X129058421Y-77152447D01*
X129164744Y-77131298D01*
X129377389Y-77089000D01*
X129702611Y-77089000D01*
X129915256Y-77131298D01*
X129915256Y-77131298D01*
G37*
M02*
