EESchema Schematic File Version 4
LIBS:pwm_to_analog_filter-cache
EELAYER 29 0
EELAYER END
$Descr A4 11693 8268
encoding utf-8
Sheet 1 1
Title ""
Date ""
Rev ""
Comp ""
Comment1 ""
Comment2 ""
Comment3 ""
Comment4 ""
$EndDescr
$Comp
L Connector:Screw_Terminal_01x02 J1
U 1 1 60F541C3
P 2590 3580
F 0 "J1" H 2508 3347 50  0000 C CNN
F 1 "Screw_Terminal_01x02" H 2508 3346 50  0001 C CNN
F 2 "TerminalBlock:TerminalBlock_bornier-2_P5.08mm" H 2590 3580 50  0001 C CNN
F 3 "~" H 2590 3580 50  0001 C CNN
	1    2590 3580
	-1   0    0    1   
$EndComp
Text Notes 2240 3230 0    50   ~ 0
PWM Input
$Comp
L Device:R R6
U 1 1 60F54AE4
P 4780 3580
F 0 "R6" V 4680 3530 50  0000 C CNN
F 1 "1k" V 4680 3630 50  0000 C CNN
F 2 "Resistor_SMD:R_0805_2012Metric_Pad1.15x1.40mm_HandSolder" V 4710 3580 50  0001 C CNN
F 3 "~" H 4780 3580 50  0001 C CNN
	1    4780 3580
	0    -1   -1   0   
$EndComp
$Comp
L Device:R R5
U 1 1 60F55242
P 4780 3480
F 0 "R5" V 4680 3430 50  0000 C CNN
F 1 "1k" V 4680 3530 50  0000 C CNN
F 2 "Resistor_SMD:R_0805_2012Metric_Pad1.15x1.40mm_HandSolder" V 4710 3480 50  0001 C CNN
F 3 "~" H 4780 3480 50  0001 C CNN
	1    4780 3480
	0    1    1    0   
$EndComp
$Comp
L Device:R R4
U 1 1 60F55A97
P 4280 3955
F 0 "R4" H 4350 4001 50  0000 L CNN
F 1 "150/5W" H 4350 3910 50  0000 L CNN
F 2 "Resistor_THT:R_Axial_Power_L25.0mm_W6.4mm_P30.48mm" V 4210 3955 50  0001 C CNN
F 3 "https://www.reichelt.de/drahtwiderstand-axial-5-w-150-ohm-10--5w-axial-150-p2602.html?&trstct=pol_4&nbc=1" H 4280 3955 50  0001 C CNN
	1    4280 3955
	1    0    0    -1  
$EndComp
$Comp
L Device:R R3
U 1 1 60F56619
P 4280 3080
F 0 "R3" H 4350 3126 50  0000 L CNN
F 1 "150/5W" H 4350 3035 50  0000 L CNN
F 2 "Resistor_THT:R_Axial_Power_L25.0mm_W6.4mm_P30.48mm" V 4210 3080 50  0001 C CNN
F 3 "https://www.reichelt.de/drahtwiderstand-axial-5-w-150-ohm-10--5w-axial-150-p2602.html?&trstct=pol_4&nbc=1" H 4280 3080 50  0001 C CNN
	1    4280 3080
	1    0    0    -1  
$EndComp
Wire Wire Line
	4280 3805 4280 3580
Connection ~ 4280 3580
Wire Wire Line
	4280 3580 4630 3580
Wire Wire Line
	4280 3480 4280 3230
Connection ~ 4280 3480
Wire Wire Line
	4280 3480 4630 3480
$Comp
L power:GND #PWR04
U 1 1 60F5753D
P 4280 4655
F 0 "#PWR04" H 4280 4405 50  0001 C CNN
F 1 "GND" H 4285 4482 50  0000 C CNN
F 2 "" H 4280 4655 50  0001 C CNN
F 3 "" H 4280 4655 50  0001 C CNN
	1    4280 4655
	1    0    0    -1  
$EndComp
$Comp
L Device:L L2
U 1 1 60F58FE9
P 5360 3580
F 0 "L2" V 5260 3680 50  0000 C CNN
F 1 "100uH" V 5260 3480 50  0000 C CNN
F 2 "Inductor_SMD:L_7.3x7.3_H3.5" H 5360 3580 50  0001 C CNN
F 3 "~" H 5360 3580 50  0001 C CNN
	1    5360 3580
	0    -1   -1   0   
$EndComp
$Comp
L Device:L L1
U 1 1 60F59982
P 5350 3480
F 0 "L1" V 5450 3580 50  0000 C CNN
F 1 "100uH" V 5450 3380 50  0000 C CNN
F 2 "Inductor_SMD:L_7.3x7.3_H3.5" H 5350 3480 50  0001 C CNN
F 3 "~" H 5350 3480 50  0001 C CNN
	1    5350 3480
	0    -1   -1   0   
$EndComp
$Comp
L Device:CP C1
U 1 1 60F5A679
P 6130 3080
F 0 "C1" H 6012 3034 50  0000 R CNN
F 1 "100uF" H 6012 3125 50  0000 R CNN
F 2 "Capacitor_SMD:CP_Elec_8x10.5" H 6168 2930 50  0001 C CNN
F 3 "~" H 6130 3080 50  0001 C CNN
	1    6130 3080
	-1   0    0    1   
$EndComp
$Comp
L Device:CP C2
U 1 1 60F5AB7B
P 6130 3930
F 0 "C2" H 6248 3976 50  0000 L CNN
F 1 "100uF" H 6248 3885 50  0000 L CNN
F 2 "Capacitor_SMD:CP_Elec_8x10.5" H 6168 3780 50  0001 C CNN
F 3 "~" H 6130 3930 50  0001 C CNN
	1    6130 3930
	1    0    0    -1  
$EndComp
Wire Wire Line
	6130 3480 6130 3290
Wire Wire Line
	6130 3580 6130 3740
$Comp
L power:GND #PWR06
U 1 1 60F5BDF2
P 6130 4230
F 0 "#PWR06" H 6130 3980 50  0001 C CNN
F 1 "GND" H 6135 4057 50  0000 C CNN
F 2 "" H 6130 4230 50  0001 C CNN
F 3 "" H 6130 4230 50  0001 C CNN
	1    6130 4230
	1    0    0    -1  
$EndComp
Wire Wire Line
	6130 4230 6130 4160
$Comp
L power:GND #PWR05
U 1 1 60F5C934
P 6130 2780
F 0 "#PWR05" H 6130 2530 50  0001 C CNN
F 1 "GND" H 6135 2607 50  0000 C CNN
F 2 "" H 6130 2780 50  0001 C CNN
F 3 "" H 6130 2780 50  0001 C CNN
	1    6130 2780
	-1   0    0    1   
$EndComp
Wire Wire Line
	6130 2780 6130 2860
$Comp
L Device:R R8
U 1 1 60F5D989
P 6745 3580
F 0 "R8" V 6645 3680 50  0000 C CNN
F 1 "13k" V 6645 3530 50  0000 C CNN
F 2 "Resistor_SMD:R_0805_2012Metric_Pad1.15x1.40mm_HandSolder" V 6675 3580 50  0001 C CNN
F 3 "~" H 6745 3580 50  0001 C CNN
	1    6745 3580
	0    -1   -1   0   
$EndComp
$Comp
L Device:R R7
U 1 1 60F5D98F
P 6745 3480
F 0 "R7" V 6645 3380 50  0000 C CNN
F 1 "13k" V 6645 3530 50  0000 C CNN
F 2 "Resistor_SMD:R_0805_2012Metric_Pad1.15x1.40mm_HandSolder" V 6675 3480 50  0001 C CNN
F 3 "~" H 6745 3480 50  0001 C CNN
	1    6745 3480
	0    1    1    0   
$EndComp
Wire Wire Line
	6595 3480 6130 3480
Connection ~ 6130 3480
Wire Wire Line
	6130 3580 6595 3580
Connection ~ 6130 3580
$Comp
L Device:R R9
U 1 1 60F5E10E
P 7130 3080
F 0 "R9" H 7005 3030 50  0000 C CNN
F 1 "10k" H 6980 3130 50  0000 C CNN
F 2 "Resistor_SMD:R_0805_2012Metric_Pad1.15x1.40mm_HandSolder" V 7060 3080 50  0001 C CNN
F 3 "~" H 7130 3080 50  0001 C CNN
	1    7130 3080
	-1   0    0    1   
$EndComp
$Comp
L Device:R R10
U 1 1 60F5F064
P 7130 3955
F 0 "R10" H 7005 3905 50  0000 C CNN
F 1 "10k" H 6980 4005 50  0000 C CNN
F 2 "Resistor_SMD:R_0805_2012Metric_Pad1.15x1.40mm_HandSolder" V 7060 3955 50  0001 C CNN
F 3 "~" H 7130 3955 50  0001 C CNN
	1    7130 3955
	-1   0    0    1   
$EndComp
$Comp
L power:GND #PWR08
U 1 1 60F5FA1B
P 7130 4230
F 0 "#PWR08" H 7130 3980 50  0001 C CNN
F 1 "GND" H 7135 4057 50  0000 C CNN
F 2 "" H 7130 4230 50  0001 C CNN
F 3 "" H 7130 4230 50  0001 C CNN
	1    7130 4230
	1    0    0    -1  
$EndComp
Wire Wire Line
	7130 4230 7130 4105
$Comp
L power:GND #PWR07
U 1 1 60F6105E
P 7130 2780
F 0 "#PWR07" H 7130 2530 50  0001 C CNN
F 1 "GND" H 7135 2607 50  0000 C CNN
F 2 "" H 7130 2780 50  0001 C CNN
F 3 "" H 7130 2780 50  0001 C CNN
	1    7130 2780
	-1   0    0    1   
$EndComp
Wire Wire Line
	7130 2780 7130 2930
Wire Wire Line
	6895 3480 7130 3480
Wire Wire Line
	7130 3480 7130 3230
Wire Wire Line
	6895 3580 7130 3580
Wire Wire Line
	7130 3580 7130 3805
$Comp
L Connector:Screw_Terminal_01x04 J8
U 1 1 60F61995
P 8090 3480
F 0 "J8" H 8170 3426 50  0000 L CNN
F 1 "Screw_Terminal_01x04" H 8170 3381 50  0001 L CNN
F 2 "TerminalBlock:TerminalBlock_bornier-4_P5.08mm" H 8090 3480 50  0001 C CNN
F 3 "~" H 8090 3480 50  0001 C CNN
	1    8090 3480
	1    0    0    -1  
$EndComp
Wire Wire Line
	7890 3580 7480 3580
$Comp
L power:GND #PWR010
U 1 1 60F63ABC
P 7890 3805
F 0 "#PWR010" H 7890 3555 50  0001 C CNN
F 1 "GND" H 7895 3632 50  0000 C CNN
F 2 "" H 7890 3805 50  0001 C CNN
F 3 "" H 7890 3805 50  0001 C CNN
	1    7890 3805
	1    0    0    -1  
$EndComp
Wire Wire Line
	7890 3805 7890 3680
$Comp
L power:GND #PWR09
U 1 1 60F641F4
P 7890 3255
F 0 "#PWR09" H 7890 3005 50  0001 C CNN
F 1 "GND" H 7895 3082 50  0000 C CNN
F 2 "" H 7890 3255 50  0001 C CNN
F 3 "" H 7890 3255 50  0001 C CNN
	1    7890 3255
	-1   0    0    1   
$EndComp
Wire Wire Line
	7890 3255 7890 3380
Wire Wire Line
	4280 4405 4280 4565
$Comp
L power:GND #PWR03
U 1 1 60F6950B
P 4280 2480
F 0 "#PWR03" H 4280 2230 50  0001 C CNN
F 1 "GND" H 4285 2307 50  0000 C CNN
F 2 "" H 4280 2480 50  0001 C CNN
F 3 "" H 4280 2480 50  0001 C CNN
	1    4280 2480
	-1   0    0    1   
$EndComp
Wire Wire Line
	4280 2730 4280 2895
Wire Wire Line
	4280 2630 4280 2495
$Comp
L Mechanical:MountingHole H1
U 1 1 60F80C51
P 5905 5005
F 0 "H1" H 6005 5005 50  0000 L CNN
F 1 "MountingHole" H 6005 4960 50  0001 L CNN
F 2 "MountingHole:MountingHole_3.2mm_M3" H 5905 5005 50  0001 C CNN
F 3 "~" H 5905 5005 50  0001 C CNN
	1    5905 5005
	1    0    0    -1  
$EndComp
$Comp
L Mechanical:MountingHole H2
U 1 1 60F8157E
P 5905 5205
F 0 "H2" H 6005 5205 50  0000 L CNN
F 1 "MountingHole" H 6005 5160 50  0001 L CNN
F 2 "MountingHole:MountingHole_3.2mm_M3" H 5905 5205 50  0001 C CNN
F 3 "~" H 5905 5205 50  0001 C CNN
	1    5905 5205
	1    0    0    -1  
$EndComp
$Comp
L Mechanical:MountingHole H3
U 1 1 60F817D1
P 6230 5005
F 0 "H3" H 6330 5005 50  0000 L CNN
F 1 "MountingHole" H 6330 4960 50  0001 L CNN
F 2 "MountingHole:MountingHole_3.2mm_M3" H 6230 5005 50  0001 C CNN
F 3 "~" H 6230 5005 50  0001 C CNN
	1    6230 5005
	1    0    0    -1  
$EndComp
$Comp
L Mechanical:MountingHole H4
U 1 1 60F81B81
P 6230 5205
F 0 "H4" H 6330 5205 50  0000 L CNN
F 1 "MountingHole" H 6330 5160 50  0001 L CNN
F 2 "MountingHole:MountingHole_3.2mm_M3" H 6230 5205 50  0001 C CNN
F 3 "~" H 6230 5205 50  0001 C CNN
	1    6230 5205
	1    0    0    -1  
$EndComp
$Comp
L Connector:Screw_Terminal_01x02 J3
U 1 1 60F8CBD3
P 4480 4405
F 0 "J3" H 4398 4172 50  0000 C CNN
F 1 "Screw_Terminal_01x02" H 4398 4171 50  0001 C CNN
F 2 "TerminalBlock:TerminalBlock_bornier-2_P5.08mm" H 4480 4405 50  0001 C CNN
F 3 "~" H 4480 4405 50  0001 C CNN
	1    4480 4405
	1    0    0    1   
$EndComp
$Comp
L Connector:Screw_Terminal_01x02 J2
U 1 1 60F8DA15
P 4480 2730
F 0 "J2" H 4398 2497 50  0000 C CNN
F 1 "Screw_Terminal_01x02" H 4398 2496 50  0001 C CNN
F 2 "TerminalBlock:TerminalBlock_bornier-2_P5.08mm" H 4480 2730 50  0001 C CNN
F 3 "~" H 4480 2730 50  0001 C CNN
	1    4480 2730
	1    0    0    1   
$EndComp
Wire Wire Line
	4280 4105 4280 4165
Text Notes 8050 3170 0    50   ~ 0
Voltage Output
$Comp
L Device:L L3
U 1 1 60F6A914
P 5410 3260
F 0 "L3" V 5510 3360 50  0000 C CNN
F 1 "10uH" V 5510 3160 50  0000 C CNN
F 2 "Inductor_SMD:L_0805_2012Metric_Pad1.15x1.40mm_HandSolder" H 5410 3260 50  0001 C CNN
F 3 "~" H 5410 3260 50  0001 C CNN
	1    5410 3260
	0    -1   -1   0   
$EndComp
$Comp
L Device:L L4
U 1 1 60F6BF1E
P 5430 3780
F 0 "L4" V 5355 3860 50  0000 C CNN
F 1 "10uH" V 5355 3675 50  0000 C CNN
F 2 "Inductor_SMD:L_0805_2012Metric_Pad1.15x1.40mm_HandSolder" H 5430 3780 50  0001 C CNN
F 3 "~" H 5430 3780 50  0001 C CNN
	1    5430 3780
	0    -1   -1   0   
$EndComp
$Comp
L Device:C C3
U 1 1 60F7189B
P 6610 3080
F 0 "C3" H 6725 3126 50  0000 L CNN
F 1 "10uF" H 6725 3035 50  0000 L CNN
F 2 "Capacitor_SMD:C_0805_2012Metric_Pad1.15x1.40mm_HandSolder" H 6648 2930 50  0001 C CNN
F 3 "~" H 6610 3080 50  0001 C CNN
	1    6610 3080
	1    0    0    -1  
$EndComp
$Comp
L Device:C C4
U 1 1 60F72380
P 6620 3940
F 0 "C4" H 6735 3986 50  0000 L CNN
F 1 "10uF" H 6735 3895 50  0000 L CNN
F 2 "Capacitor_SMD:C_0805_2012Metric_Pad1.15x1.40mm_HandSolder" H 6658 3790 50  0001 C CNN
F 3 "~" H 6620 3940 50  0001 C CNN
	1    6620 3940
	1    0    0    -1  
$EndComp
Wire Wire Line
	6620 3790 6620 3740
Wire Wire Line
	6620 3740 6130 3740
Connection ~ 6130 3740
Wire Wire Line
	6130 3740 6130 3780
Wire Wire Line
	6130 4160 6620 4160
Wire Wire Line
	6620 4160 6620 4090
Connection ~ 6130 4160
Wire Wire Line
	6130 4160 6130 4080
Wire Wire Line
	6610 3230 6610 3290
Wire Wire Line
	6610 3290 6130 3290
Connection ~ 6130 3290
Wire Wire Line
	6130 3290 6130 3230
Wire Wire Line
	6130 2860 6610 2860
Wire Wire Line
	6610 2860 6610 2930
Connection ~ 6130 2860
Wire Wire Line
	6130 2860 6130 2930
Wire Wire Line
	5510 3580 5760 3580
Wire Wire Line
	5500 3480 5750 3480
$Comp
L Jumper:SolderJumper_2_Open JP1
U 1 1 60F9BF0A
P 4120 2680
F 0 "JP1" V 4120 2900 50  0000 R CNN
F 1 "SolderJumper_2_Open" H 4120 2794 50  0001 C CNN
F 2 "Jumper:SolderJumper-2_P1.3mm_Open_RoundedPad1.0x1.5mm" H 4120 2680 50  0001 C CNN
F 3 "~" H 4120 2680 50  0001 C CNN
	1    4120 2680
	0    -1   -1   0   
$EndComp
Wire Wire Line
	4120 2530 4120 2495
Wire Wire Line
	4120 2495 4280 2495
Connection ~ 4280 2495
Wire Wire Line
	4280 2495 4280 2480
Wire Wire Line
	4120 2830 4120 2895
Wire Wire Line
	4120 2895 4280 2895
Connection ~ 4280 2895
Wire Wire Line
	4280 2895 4280 2930
$Comp
L Jumper:SolderJumper_2_Open JP2
U 1 1 60F9EDDB
P 4120 4350
F 0 "JP2" V 4120 4570 50  0000 R CNN
F 1 "SolderJumper_2_Open" H 4120 4464 50  0001 C CNN
F 2 "Jumper:SolderJumper-2_P1.3mm_Open_RoundedPad1.0x1.5mm" H 4120 4350 50  0001 C CNN
F 3 "~" H 4120 4350 50  0001 C CNN
	1    4120 4350
	0    -1   1    0   
$EndComp
Wire Wire Line
	4120 4200 4120 4165
Wire Wire Line
	4120 4165 4280 4165
Wire Wire Line
	4120 4500 4120 4565
Wire Wire Line
	4120 4565 4280 4565
Connection ~ 4280 4165
Wire Wire Line
	4280 4165 4280 4305
Connection ~ 4280 4565
Wire Wire Line
	4280 4565 4280 4655
$Comp
L Device:LED D1
U 1 1 60FA456A
P 3680 2830
F 0 "D1" V 3627 2908 50  0000 L CNN
F 1 "LED" V 3718 2908 50  0000 L CNN
F 2 "LED_SMD:LED_0805_2012Metric_Pad1.15x1.40mm_HandSolder" H 3680 2830 50  0001 C CNN
F 3 "~" H 3680 2830 50  0001 C CNN
	1    3680 2830
	0    1    1    0   
$EndComp
$Comp
L Device:R R1
U 1 1 60FAB713
P 3680 3230
F 0 "R1" H 3560 3180 50  0000 C CNN
F 1 "2k2" H 3540 3280 50  0000 C CNN
F 2 "Resistor_SMD:R_0805_2012Metric_Pad1.15x1.40mm_HandSolder" V 3610 3230 50  0001 C CNN
F 3 "~" H 3680 3230 50  0001 C CNN
	1    3680 3230
	-1   0    0    1   
$EndComp
$Comp
L power:GND #PWR01
U 1 1 60FAC236
P 3680 2490
F 0 "#PWR01" H 3680 2240 50  0001 C CNN
F 1 "GND" H 3685 2317 50  0000 C CNN
F 2 "" H 3680 2490 50  0001 C CNN
F 3 "" H 3680 2490 50  0001 C CNN
	1    3680 2490
	-1   0    0    1   
$EndComp
Wire Wire Line
	3680 2490 3680 2680
Wire Wire Line
	3680 2980 3680 3080
Wire Wire Line
	3680 3380 3680 3480
Connection ~ 3680 3480
Wire Wire Line
	3680 3480 4280 3480
$Comp
L Device:LED D2
U 1 1 60FB0FA5
P 3680 4230
F 0 "D2" V 3627 4308 50  0000 L CNN
F 1 "LED" V 3718 4308 50  0000 L CNN
F 2 "LED_SMD:LED_0805_2012Metric_Pad1.15x1.40mm_HandSolder" H 3680 4230 50  0001 C CNN
F 3 "~" H 3680 4230 50  0001 C CNN
	1    3680 4230
	0    -1   -1   0   
$EndComp
$Comp
L Device:R R2
U 1 1 60FB0FAB
P 3680 3830
F 0 "R2" H 3560 3780 50  0000 C CNN
F 1 "2k2" H 3540 3880 50  0000 C CNN
F 2 "Resistor_SMD:R_0805_2012Metric_Pad1.15x1.40mm_HandSolder" V 3610 3830 50  0001 C CNN
F 3 "~" H 3680 3830 50  0001 C CNN
	1    3680 3830
	1    0    0    -1  
$EndComp
$Comp
L power:GND #PWR02
U 1 1 60FB0FB1
P 3680 4570
F 0 "#PWR02" H 3680 4320 50  0001 C CNN
F 1 "GND" H 3685 4397 50  0000 C CNN
F 2 "" H 3680 4570 50  0001 C CNN
F 3 "" H 3680 4570 50  0001 C CNN
	1    3680 4570
	1    0    0    -1  
$EndComp
Wire Wire Line
	3680 4570 3680 4380
Wire Wire Line
	3680 4080 3680 3980
Wire Wire Line
	3680 3580 3680 3680
Connection ~ 3680 3580
Wire Wire Line
	3680 3580 4280 3580
Wire Wire Line
	6130 3290 6100 3290
Wire Wire Line
	6110 2860 6130 2860
$Comp
L Connector_Generic:Conn_01x01 J7
U 1 1 60FE0282
P 5910 2860
F 0 "J7" H 5910 2750 50  0000 C CNN
F 1 "Conn_01x01" H 5828 2726 50  0001 C CNN
F 2 "Connector_PinHeader_2.54mm:PinHeader_1x01_P2.54mm_Vertical" H 5910 2860 50  0001 C CNN
F 3 "~" H 5910 2860 50  0001 C CNN
	1    5910 2860
	-1   0    0    1   
$EndComp
$Comp
L Connector_Generic:Conn_01x01 J6
U 1 1 60FE693F
P 5900 3290
F 0 "J6" H 5900 3180 50  0000 C CNN
F 1 "Conn_01x01" H 5818 3156 50  0001 C CNN
F 2 "Connector_PinHeader_2.54mm:PinHeader_1x01_P2.54mm_Vertical" H 5900 3290 50  0001 C CNN
F 3 "~" H 5900 3290 50  0001 C CNN
	1    5900 3290
	-1   0    0    1   
$EndComp
$Comp
L Connector_Generic:Conn_01x01 J5
U 1 1 60FED119
P 5890 3740
F 0 "J5" H 5890 3630 50  0000 C CNN
F 1 "Conn_01x01" H 5808 3606 50  0001 C CNN
F 2 "Connector_PinHeader_2.54mm:PinHeader_1x01_P2.54mm_Vertical" H 5890 3740 50  0001 C CNN
F 3 "~" H 5890 3740 50  0001 C CNN
	1    5890 3740
	-1   0    0    1   
$EndComp
$Comp
L Connector_Generic:Conn_01x01 J4
U 1 1 60FED11F
P 5880 4160
F 0 "J4" H 5880 4050 50  0000 C CNN
F 1 "Conn_01x01" H 5798 4026 50  0001 C CNN
F 2 "Connector_PinHeader_2.54mm:PinHeader_1x01_P2.54mm_Vertical" H 5880 4160 50  0001 C CNN
F 3 "~" H 5880 4160 50  0001 C CNN
	1    5880 4160
	-1   0    0    1   
$EndComp
Wire Wire Line
	6130 3740 6090 3740
Wire Wire Line
	6080 4160 6130 4160
Wire Wire Line
	4930 3480 5100 3480
Wire Wire Line
	4930 3580 5100 3580
Wire Wire Line
	5100 3480 5100 3260
Wire Wire Line
	5100 3260 5260 3260
Connection ~ 5100 3480
Wire Wire Line
	5100 3480 5200 3480
Wire Wire Line
	5560 3260 5750 3260
Wire Wire Line
	5750 3260 5750 3480
Connection ~ 5750 3480
Wire Wire Line
	5750 3480 6130 3480
Wire Wire Line
	5100 3580 5100 3780
Wire Wire Line
	5100 3780 5280 3780
Connection ~ 5100 3580
Wire Wire Line
	5100 3580 5210 3580
Wire Wire Line
	5580 3780 5760 3780
Wire Wire Line
	5760 3780 5760 3580
Connection ~ 5760 3580
Wire Wire Line
	5760 3580 6130 3580
Connection ~ 7130 3480
Connection ~ 7130 3580
$Comp
L Device:C C6
U 1 1 60F74301
P 7480 3940
F 0 "C6" H 7595 3986 50  0000 L CNN
F 1 "1uF" H 7595 3895 50  0000 L CNN
F 2 "Capacitor_SMD:C_0805_2012Metric_Pad1.15x1.40mm_HandSolder" H 7518 3790 50  0001 C CNN
F 3 "~" H 7480 3940 50  0001 C CNN
	1    7480 3940
	1    0    0    -1  
$EndComp
$Comp
L Device:C C5
U 1 1 60F74759
P 7480 3080
F 0 "C5" H 7595 3126 50  0000 L CNN
F 1 "1uF" H 7595 3035 50  0000 L CNN
F 2 "Capacitor_SMD:C_0805_2012Metric_Pad1.15x1.40mm_HandSolder" H 7518 2930 50  0001 C CNN
F 3 "~" H 7480 3080 50  0001 C CNN
	1    7480 3080
	1    0    0    -1  
$EndComp
$Comp
L power:GND #PWR012
U 1 1 60F74C9E
P 7480 4240
F 0 "#PWR012" H 7480 3990 50  0001 C CNN
F 1 "GND" H 7485 4067 50  0000 C CNN
F 2 "" H 7480 4240 50  0001 C CNN
F 3 "" H 7480 4240 50  0001 C CNN
	1    7480 4240
	1    0    0    -1  
$EndComp
$Comp
L power:GND #PWR011
U 1 1 60F74EFE
P 7480 2780
F 0 "#PWR011" H 7480 2530 50  0001 C CNN
F 1 "GND" H 7485 2607 50  0000 C CNN
F 2 "" H 7480 2780 50  0001 C CNN
F 3 "" H 7480 2780 50  0001 C CNN
	1    7480 2780
	-1   0    0    1   
$EndComp
Wire Wire Line
	7480 3230 7480 3480
Wire Wire Line
	7130 3480 7480 3480
Connection ~ 7480 3480
Wire Wire Line
	7480 3480 7890 3480
Wire Wire Line
	7480 2930 7480 2780
Wire Wire Line
	7480 3790 7480 3580
Connection ~ 7480 3580
Wire Wire Line
	7480 3580 7130 3580
Wire Wire Line
	7480 4240 7480 4090
$Comp
L Device:D_Schottky D3
U 1 1 610BDA86
P 3110 3450
F 0 "D3" H 3220 3340 50  0000 C CNN
F 1 "SS34" H 2990 3340 50  0000 C CNN
F 2 "Diode_SMD:D_SMA" H 3110 3450 50  0001 C CNN
F 3 "~" H 3110 3450 50  0001 C CNN
	1    3110 3450
	-1   0    0    1   
$EndComp
Wire Wire Line
	2790 3480 2960 3480
Wire Wire Line
	3260 3480 3680 3480
$Comp
L Device:D_Schottky D4
U 1 1 610C29F6
P 3110 3610
F 0 "D4" H 3200 3720 50  0000 C CNN
F 1 "SS34" H 3010 3720 50  0000 C CNN
F 2 "Diode_SMD:D_SMA" H 3110 3610 50  0001 C CNN
F 3 "~" H 3110 3610 50  0001 C CNN
	1    3110 3610
	-1   0    0    1   
$EndComp
Wire Wire Line
	2790 3580 2960 3580
Wire Wire Line
	2960 3580 2960 3610
Wire Wire Line
	3260 3610 3260 3580
Wire Wire Line
	3260 3580 3680 3580
Wire Wire Line
	2960 3480 2960 3450
Wire Wire Line
	3260 3480 3260 3450
$EndSCHEMATC
